…
This dataset contains 1384617 rows and 15 columns.

Observations are the level of items in orders by user. There are user /
order variables – user ID, order ID, order day, and order hour. There
are also item variables – name, aisle, department, and some numeric
codes.

``` r
instacart %>% 
    count(aisle) %>% 
    arrange(desc(n))
```

    ## # A tibble: 134 x 2
    ##    aisle                              n
    ##    <chr>                          <int>
    ##  1 fresh vegetables              150609
    ##  2 fresh fruits                  150473
    ##  3 packaged vegetables fruits     78493
    ##  4 yogurt                         55240
    ##  5 packaged cheese                41699
    ##  6 water seltzer sparkling water  36617
    ##  7 milk                           32644
    ##  8 chips pretzels                 31269
    ##  9 soy lactosefree                26240
    ## 10 bread                          23635
    ## # ... with 124 more rows
…
The `ny_noaa` package has 2595176 rows and 9 columns. It has the data of
weather conditions for all New York state weather stations from January
1, 1981 through December 31, 2010. The variables in it are
`ls(noaa_df)`. `prcp`, `snow`, `snwd`, `tmax`, `tmin` have the missing
values. The missing proportion of them: prcp(0.0088087), snow(0.146896),
snwd(0.2280331), tmax(0.4371025), and tmin(0.4371264). `snow` and `snwd`
are high while `tmax` and `tmin` are extremely high\!

``` r
noaa_df %>% 
  count(snow) %>% 
  arrange(desc(n))
```

    ## # A tibble: 281 x 2
    ##     snow       n
    ##    <dbl>   <int>
    ##  1     0 2008509
    ##  2    NA  381221
    ##  3    25   31022
    ##  4    13   23095
    ##  5    51   18274
    ##  6    76   10173
    ##  7     8    9962
    ##  8     5    9748
    ##  9    38    9197
    ## 10     3    8790
    ## # ... with 271 more rows
…
